<?xml version="1.0" standalone="no"?>
<!DOCTYPE svg PUBLIC "-//W3C//DTD SVG 1.1//EN" "http://www.w3.org/Graphics/SVG/1.1/DTD/svg11.dtd">
<svg xmlns="http://www.w3.org/2000/svg">
<metadata>Generated by Fontastic.me</metadata>
<defs>
<font id="onelink" horiz-adv-x="512">
<font-face font-family="onelink" units-per-em="512" ascent="480" descent="-32"/>
<missing-glyph horiz-adv-x="512" />

<glyph glyph-name="angle-down" unicode="&#97;" d="M399 302c0-3-1-5-3-7l-133-133c-2-2-5-3-7-3-2 0-5 1-7 3l-133 133c-2 2-3 4-3 7 0 2 1 4 3 6l15 15c1 1 4 2 6 2 3 0 5-1 7-2l112-113 112 113c2 1 4 2 7 2 2 0 5-1 6-2l15-15c2-2 3-4 3-6z"/>
<glyph glyph-name="angle-left" unicode="&#98;" d="M344 357c0-3-1-5-3-7l-112-112 112-113c2-1 3-4 3-6 0-3-1-5-3-7l-14-14c-2-2-5-3-7-3-2 0-5 1-7 3l-133 133c-2 2-3 4-3 7 0 2 1 4 3 6l133 133c2 2 5 3 7 3 2 0 5-1 7-3l14-14c2-2 3-4 3-6z"/>
<glyph glyph-name="angle-right" unicode="&#99;" d="M335 238c0-3-1-5-3-7l-133-133c-2-2-5-3-7-3-2 0-5 1-7 3l-14 14c-2 2-3 4-3 7 0 2 1 5 3 6l112 113-112 112c-2 2-3 4-3 7 0 2 1 4 3 6l14 14c2 2 5 3 7 3 2 0 5-1 7-3l133-133c2-2 3-4 3-6z"/>
<glyph glyph-name="angle-up" unicode="&#100;" d="M399 174c0-3-1-5-3-7l-15-14c-1-2-4-3-6-3-3 0-5 1-7 3l-112 112-112-112c-2-2-4-3-7-3-2 0-5 1-6 3l-15 14c-2 2-3 4-3 7 0 2 1 4 3 6l133 133c2 2 5 3 7 3 2 0 5-1 7-3l133-133c2-2 3-4 3-6z"/>
<glyph glyph-name="arrow-down" unicode="&#101;" d="M479 274c0-10-4-18-11-25l-186-187c-7-7-16-10-26-10-10 0-19 3-26 10l-186 187c-7 6-11 15-11 25 0 10 4 19 11 26l21 22c8 7 17 10 26 10 11 0 19-3 26-10l84-84 0 201c0 10 4 18 11 26 7 7 16 10 26 10l36 0c10 0 19-3 26-10 7-8 11-16 11-26l0-201 84 84c7 7 15 10 26 10 9 0 18-3 26-10l21-22c7-7 11-16 11-26z"/>
<glyph glyph-name="arrow-left" unicode="&#102;" d="M475 256l0-37c0-10-3-18-9-25-6-8-14-11-24-11l-201 0 84-84c7-7 10-16 10-26 0-10-3-19-10-26l-22-21c-7-7-15-11-26-11-9 0-18 4-26 11l-186 186c-7 7-10 16-10 26 0 10 3 18 10 26l186 185c8 8 16 11 26 11 10 0 19-3 26-11l22-21c7-7 10-16 10-26 0-10-3-18-10-26l-84-83 201 0c10 0 18-4 24-11 6-7 9-16 9-26z"/>
<glyph glyph-name="arrow-right" unicode="&#103;" d="M457 238c0-11-3-19-10-26l-186-186c-8-7-17-11-26-11-10 0-19 4-26 11l-22 21c-7 7-10 16-10 26 0 10 3 19 10 26l84 84-201 0c-10 0-18 3-24 11-6 7-9 15-9 25l0 37c0 10 3 19 9 26 6 7 14 11 24 11l201 0-84 84c-7 6-10 15-10 25 0 11 3 19 10 26l22 21c7 8 16 11 26 11 10 0 18-3 26-11l186-186c7-6 10-15 10-25z"/>
<glyph glyph-name="arrow-up" unicode="&#104;" d="M479 235c0-10-4-19-11-26l-21-22c-8-7-16-10-26-10-11 0-19 3-26 10l-84 84 0-201c0-10-4-18-11-24-7-6-16-9-26-9l-36 0c-10 0-19 3-26 9-7 6-11 14-11 24l0 201-84-84c-7-7-15-10-26-10-10 0-18 3-25 10l-22 22c-7 7-11 16-11 26 0 10 4 18 11 26l186 186c7 7 16 10 26 10 10 0 19-3 26-10l186-186c7-8 11-17 11-26z"/>
<glyph glyph-name="arrow-circle-up" unicode="&#105;" d="M403 256c0 5-1 10-5 13l-103 104-26 26c-4 3-8 5-13 5-5 0-9-2-13-5l-26-26-103-104c-4-3-5-8-5-13 0-5 1-9 5-13l26-26c3-3 7-5 13-5 5 0 9 2 12 5l54 54 0-143c0-5 2-9 6-13 3-3 8-5 13-5l36 0c5 0 10 2 13 5 4 4 6 8 6 13l0 143 54-54c3-3 7-5 12-5 5 0 10 2 13 5l26 26c4 4 5 8 5 13z m72 0c0-40-9-77-29-110-20-34-46-60-80-80-33-20-70-29-110-29-40 0-77 9-110 29-34 20-60 46-80 80-20 33-29 70-29 110 0 40 9 77 29 110 20 34 46 60 80 80 33 20 70 29 110 29 40 0 77-9 110-29 34-20 60-46 80-80 20-33 29-70 29-110z"/>
<glyph glyph-name="arrow-circle-right" unicode="&#106;" d="M404 256c0 5-2 9-5 13l-26 26-104 103c-3 4-8 5-13 5-5 0-9-1-13-5l-26-26c-3-3-5-7-5-13 0-5 2-9 5-12l54-54-143 0c-5 0-9-2-13-6-3-3-5-8-5-13l0-36c0-5 2-10 5-13 4-4 8-6 13-6l143 0-54-54c-3-3-5-7-5-12 0-5 2-10 5-13l26-26c4-4 8-5 13-5 5 0 10 1 13 5l104 103 26 26c3 4 5 8 5 13z m71 0c0-40-9-77-29-110-20-34-46-60-80-80-33-20-70-29-110-29-40 0-77 9-110 29-34 20-60 46-80 80-20 33-29 70-29 110 0 40 9 77 29 110 20 34 46 60 80 80 33 20 70 29 110 29 40 0 77-9 110-29 34-20 60-46 80-80 20-33 29-70 29-110z"/>
<glyph glyph-name="arrow-circle-down" unicode="&#107;" d="M403 256c0 5-1 9-5 13l-26 26c-3 3-7 5-13 5-5 0-9-2-12-5l-54-54 0 143c0 5-2 9-6 13-3 3-8 5-13 5l-36 0c-5 0-10-2-13-5-4-4-6-8-6-13l0-143-54 54c-3 3-7 5-12 5-5 0-10-2-13-5l-26-26c-4-4-5-8-5-13 0-5 1-10 5-13l103-104 26-26c4-3 8-5 13-5 5 0 9 2 13 5l26 26 103 104c4 3 5 8 5 13z m72 0c0-40-9-77-29-110-20-34-46-60-80-80-33-20-70-29-110-29-40 0-77 9-110 29-34 20-60 46-80 80-20 33-29 70-29 110 0 40 9 77 29 110 20 34 46 60 80 80 33 20 70 29 110 29 40 0 77-9 110-29 34-20 60-46 80-80 20-33 29-70 29-110z"/>
<glyph glyph-name="arrow-circle-left" unicode="&#108;" d="M402 238l0 36c0 5-2 10-5 13-4 4-8 6-13 6l-143 0 54 54c3 3 5 7 5 12 0 5-2 10-5 13l-26 26c-4 4-8 5-13 5-5 0-10-1-13-5l-104-103-26-26c-3-4-5-8-5-13 0-5 2-9 5-13l26-26 104-103c3-4 8-5 13-5 5 0 9 1 13 5l26 26c3 3 5 7 5 13 0 5-2 9-5 12l-54 54 143 0c5 0 9 2 13 6 3 3 5 8 5 13z m73 18c0-40-9-77-29-110-20-34-46-60-80-80-33-20-70-29-110-29-40 0-77 9-110 29-34 20-60 46-80 80-20 33-29 70-29 110 0 40 9 77 29 110 20 34 46 60 80 80 33 20 70 29 110 29 40 0 77-9 110-29 34-20 60-46 80-80 20-33 29-70 29-110z"/>
<glyph glyph-name="arrows-alt" unicode="&#109;" d="M403 357l-101-101 101-101 41 41c6 6 12 7 20 4 8-4 11-9 11-17l0-128c0-5-1-9-5-13-4-4-8-5-13-5l-128 0c-8 0-13 3-17 11-3 7-2 14 4 20l41 41-101 101-101-101 41-41c6-6 7-13 4-20-4-8-9-11-17-11l-128 0c-5 0-9 1-13 5-4 4-5 8-5 13l0 128c0 8 3 13 11 17 7 3 14 2 20-4l41-41 101 101-101 101-41-41c-4-3-8-5-13-5-2 0-5 0-7 1-8 4-11 9-11 17l0 128c0 5 1 9 5 13 4 4 8 5 13 5l128 0c8 0 13-3 17-11 3-7 2-14-4-20l-41-41 101-101 101 101-41 41c-6 6-7 13-4 20 4 8 9 11 17 11l128 0c5 0 9-1 13-5 4-4 5-8 5-13l0-128c0-8-3-13-11-17-2-1-5-1-7-1-5 0-9 2-13 5z"/>
<glyph glyph-name="ban" unicode="&#110;" d="M411 257c0 31-8 59-24 84l-216-215c26-17 55-25 85-25 21 0 41 4 60 12 20 8 36 19 50 33 14 14 25 31 33 50 8 19 12 40 12 61z m-285-86l216 216c-26 17-55 26-86 26-28 0-54-7-78-21-24-14-43-33-57-57-13-24-20-50-20-78 0-31 8-59 25-86z m349 86c0-30-5-59-17-86-12-27-27-51-47-70-19-20-43-35-70-47-27-12-55-17-85-17-30 0-58 5-85 17-27 12-51 27-70 47-20 19-35 43-47 70-12 27-17 56-17 86 0 30 5 58 17 85 12 28 27 51 47 71 19 19 43 35 70 46 27 12 55 18 85 18 30 0 58-6 85-18 27-11 51-27 70-46 20-20 35-43 47-71 12-27 17-55 17-85z"/>
<glyph glyph-name="calculator" unicode="&#111;" d="M110 73c0 10-4 19-11 26-7 7-16 11-26 11-10 0-19-4-26-11-7-7-10-16-10-26 0-10 3-19 10-26 7-7 16-10 26-10 10 0 19 3 26 10 7 7 11 16 11 26z m109 0c0 10-3 19-10 26-7 7-16 11-26 11-10 0-19-4-26-11-7-7-11-16-11-26 0-10 4-19 11-26 7-7 16-10 26-10 10 0 19 3 26 10 7 7 10 16 10 26z m-109 110c0 10-4 19-11 26-7 7-16 10-26 10-10 0-19-3-26-10-7-7-10-16-10-26 0-10 3-19 10-26 7-7 16-11 26-11 10 0 19 4 26 11 7 7 11 16 11 26z m219-110c0 10-3 19-11 26-7 7-15 11-25 11-11 0-19-4-26-11-7-7-11-16-11-26 0-10 4-19 11-26 7-7 15-10 26-10 10 0 18 3 25 10 8 7 11 16 11 26z m-110 110c0 10-3 19-10 26-7 7-16 10-26 10-10 0-19-3-26-10-7-7-11-16-11-26 0-10 4-19 11-26 7-7 16-11 26-11 10 0 19 4 26 11 7 7 10 16 10 26z m-109 110c0 10-4 18-11 25-7 8-16 11-26 11-10 0-19-3-26-11-7-7-10-15-10-25 0-11 3-19 10-26 7-7 16-11 26-11 10 0 19 4 26 11 7 7 11 15 11 26z m219-110c0 10-3 19-11 26-7 7-15 10-25 10-11 0-19-3-26-10-7-7-11-16-11-26 0-10 4-19 11-26 7-7 15-11 26-11 10 0 18 4 25 11 8 7 11 16 11 26z m-110 110c0 10-3 18-10 25-7 8-16 11-26 11-10 0-19-3-26-11-7-7-11-15-11-25 0-11 4-19 11-26 7-7 16-11 26-11 10 0 19 4 26 11 7 7 10 15 10 26z m220-220l0 110c0 10-4 18-11 26-7 7-16 10-26 10-10 0-18-3-25-10-8-8-11-16-11-26l0-110c0-10 3-18 11-26 7-7 15-10 25-10 10 0 19 3 26 10 7 8 11 16 11 26z m-110 220c0 10-3 18-11 25-7 8-15 11-25 11-11 0-19-3-26-11-7-7-11-15-11-25 0-11 4-19 11-26 7-7 15-11 26-11 10 0 18 4 25 11 8 7 11 15 11 26z m110 91l0 73c0 5-2 9-6 13-3 4-7 5-12 5l-366 0c-5 0-9-1-13-5-4-4-5-8-5-13l0-73c0-5 1-9 5-13 4-3 8-5 13-5l366 0c5 0 9 2 12 5 4 4 6 8 6 13z m0-91c0 10-4 18-11 25-7 8-16 11-26 11-10 0-18-3-26-11-7-7-10-15-10-25 0-11 3-19 10-26 8-7 16-11 26-11 10 0 19 4 26 11 7 7 11 15 11 26z m36 182l0-438c0-10-3-19-10-26-8-7-16-11-26-11l-402 0c-10 0-19 4-26 11-7 7-11 16-11 26l0 438c0 10 4 19 11 26 7 7 16 11 26 11l402 0c10 0 18-4 26-11 7-7 10-16 10-26z"/>
<glyph glyph-name="calendar-o" unicode="&#112;" d="M55 37l402 0 0 292-402 0z m110 347l0 82c0 3-1 5-3 7-2 2-4 2-7 2l-18 0c-3 0-5 0-6-2-2-2-3-4-3-7l0-82c0-3 1-5 3-7 1-1 3-2 6-2l18 0c3 0 5 1 7 2 2 2 3 4 3 7z m219 0l0 82c0 3-1 5-3 7-1 2-3 2-6 2l-18 0c-3 0-5 0-7-2-2-2-3-4-3-7l0-82c0-3 1-5 3-7 2-1 4-2 7-2l18 0c3 0 5 1 6 2 2 2 3 4 3 7z m110 18l0-365c0-10-4-19-11-26-7-7-16-11-26-11l-402 0c-10 0-19 4-26 11-7 7-11 16-11 26l0 365c0 10 4 19 11 26 7 7 16 11 26 11l36 0 0 27c0 13 5 24 14 33 9 9 20 13 32 13l18 0c13 0 24-4 33-13 9-9 13-20 13-33l0-27 110 0 0 27c0 13 4 24 13 33 9 9 20 13 33 13l18 0c12 0 23-4 32-13 9-9 14-20 14-33l0-27 36 0c10 0 19-4 26-11 7-7 11-16 11-26z"/>
<glyph glyph-name="caret-down" unicode="&#113;" d="M402 311c0-5-2-9-5-13l-128-128c-4-4-8-5-13-5-5 0-9 1-13 5l-128 128c-3 4-5 8-5 13 0 5 2 9 5 13 4 3 8 5 13 5l256 0c5 0 9-2 13-5 3-4 5-8 5-13z"/>
<glyph glyph-name="caret-left" unicode="&#114;" d="M347 384l0-256c0-5-1-9-5-13-4-3-8-5-13-5-5 0-9 2-13 5l-128 128c-3 4-5 8-5 13 0 5 2 9 5 13l128 128c4 3 8 5 13 5 5 0 9-2 13-5 4-4 5-8 5-13z"/>
<glyph glyph-name="caret-right" unicode="&#115;" d="M329 256c0-5-2-9-5-13l-128-128c-4-3-8-5-13-5-5 0-9 2-13 5-4 4-5 8-5 13l0 256c0 5 1 9 5 13 4 3 8 5 13 5 5 0 9-2 13-5l128-128c3-4 5-8 5-13z"/>
<glyph glyph-name="caret-up" unicode="&#116;" d="M402 165c0-5-2-10-5-13-4-4-8-6-13-6l-256 0c-5 0-9 2-13 6-3 3-5 8-5 13 0 5 2 9 5 12l128 128c4 4 8 6 13 6 5 0 9-2 13-6l128-128c3-3 5-7 5-12z"/>
<glyph glyph-name="chevron-down" unicode="&#117;" d="M481 281l-212-212c-4-3-8-5-13-5-5 0-9 2-13 5l-212 212c-3 4-5 8-5 13 0 5 2 10 5 13l48 47c3 4 7 6 12 6 5 0 10-2 13-6l152-151 152 151c3 4 8 6 13 6 5 0 9-2 12-6l48-47c3-3 5-8 5-13 0-5-2-9-5-13z"/>
<glyph glyph-name="chevron-left" unicode="&#118;" d="M408 426l-152-152 152-151c3-4 5-8 5-13 0-5-2-10-5-13l-48-48c-3-3-8-5-13-5-5 0-9 2-12 5l-212 212c-4 4-6 8-6 13 0 5 2 10 6 13l212 212c3 4 7 6 12 6 5 0 10-2 13-6l48-47c3-4 5-8 5-13 0-5-2-9-5-13z"/>
<glyph glyph-name="chevron-right" unicode="&#119;" d="M389 261l-212-212c-3-3-7-5-12-5-5 0-10 2-13 5l-48 48c-3 3-5 8-5 13 0 5 2 9 5 13l152 151-152 152c-3 4-5 8-5 13 0 5 2 9 5 13l48 47c3 4 8 6 13 6 5 0 9-2 12-6l212-212c4-3 6-8 6-13 0-5-2-9-6-13z"/>
<glyph glyph-name="chevron-up" unicode="&#120;" d="M481 132l-48-47c-3-4-7-6-12-6-5 0-10 2-13 6l-152 151-152-151c-3-4-8-6-13-6-5 0-9 2-12 6l-48 47c-3 3-5 8-5 13 0 5 2 9 5 13l212 211c4 4 8 6 13 6 5 0 9-2 13-6l212-211c3-4 5-8 5-13 0-5-2-10-5-13z"/>
<glyph glyph-name="check" unicode="&#121;" d="M477 350c0-7-2-14-8-19l-206-207-39-39c-6-5-12-8-20-8-7 0-14 3-19 8l-142 142c-6 6-8 12-8 20 0 7 2 14 8 19l38 39c6 5 12 8 20 8 7 0 14-3 19-8l84-84 188 188c5 5 12 8 19 8 8 0 14-3 20-8l38-39c6-6 8-12 8-20z"/>
<glyph glyph-name="circle" unicode="&#122;" d="M475 256c0-40-9-77-29-110-20-34-46-60-80-80-33-20-70-29-110-29-40 0-77 9-110 29-34 20-60 46-80 80-20 33-29 70-29 110 0 40 9 77 29 110 20 34 46 60 80 80 33 20 70 29 110 29 40 0 77-9 110-29 34-20 60-46 80-80 20-33 29-70 29-110z"/>
<glyph glyph-name="circle-o" unicode="&#65;" d="M256 411c-28 0-54-7-78-20-24-14-43-33-57-57-13-24-20-50-20-78 0-28 7-54 20-78 14-24 33-43 57-57 24-13 50-20 78-20 28 0 54 7 78 20 24 14 43 33 57 57 13 24 20 50 20 78 0 28-7 54-20 78-14 24-33 43-57 57-24 13-50 20-78 20z m219-155c0-40-9-77-29-110-20-34-46-60-80-80-33-20-70-29-110-29-40 0-77 9-110 29-34 20-60 46-80 80-20 33-29 70-29 110 0 40 9 77 29 110 20 34 46 60 80 80 33 20 70 29 110 29 40 0 77-9 110-29 34-20 60-46 80-80 20-33 29-70 29-110z"/>
<glyph glyph-name="clock-o" unicode="&#66;" d="M293 357l0-128c0-3-1-5-3-7-2-2-4-3-7-3l-91 0c-3 0-5 1-7 3-1 2-2 4-2 7l0 18c0 3 1 5 2 6 2 2 4 3 7 3l64 0 0 101c0 2 1 4 3 6 1 2 3 3 6 3l18 0c3 0 5-1 7-3 2-2 3-4 3-6z m118-101c0 28-7 54-20 78-14 24-33 43-57 57-24 13-50 20-78 20-28 0-54-7-78-20-24-14-43-33-57-57-13-24-20-50-20-78 0-28 7-54 20-78 14-24 33-43 57-57 24-13 50-20 78-20 28 0 54 7 78 20 24 14 43 33 57 57 13 24 20 50 20 78z m64 0c0-40-9-77-29-110-20-34-46-60-80-80-33-20-70-29-110-29-40 0-77 9-110 29-34 20-60 46-80 80-20 33-29 70-29 110 0 40 9 77 29 110 20 34 46 60 80 80 33 20 70 29 110 29 40 0 77-9 110-29 34-20 60-46 80-80 20-33 29-70 29-110z"/>
<glyph glyph-name="clone" unicode="&#67;" d="M475 46l0 311c0 2 0 4-2 6-2 2-4 3-7 3l-311 0c-2 0-4-1-6-3-2-2-3-4-3-6l0-311c0-3 1-5 3-7 2-2 4-2 6-2l311 0c3 0 5 0 7 2 2 2 2 4 2 7z m37 311l0-311c0-13-4-24-13-33-9-9-20-13-33-13l-311 0c-12 0-23 4-32 13-9 9-13 20-13 33l0 311c0 12 4 23 13 32 9 9 20 13 32 13l311 0c13 0 24-4 33-13 9-9 13-20 13-32z m-110 109l0-45-36 0 0 45c0 3-1 5-3 7-2 2-4 2-6 2l-311 0c-3 0-5 0-7-2-2-2-2-4-2-7l0-311c0-2 0-4 2-6 2-2 4-3 7-3l45 0 0-36-45 0c-13 0-24 4-33 13-9 9-13 20-13 32l0 311c0 13 4 24 13 33 9 9 20 13 33 13l311 0c12 0 23-4 32-13 9-9 13-20 13-33z"/>
<glyph glyph-name="code" unicode="&#68;" d="M158 112l-14-14c-2-2-4-3-7-3-2 0-5 1-6 3l-134 133c-1 2-2 4-2 7 0 2 1 4 2 6l134 133c1 2 4 3 6 3 3 0 5-1 7-3l14-14c2-2 3-4 3-6 0-3-1-5-3-7l-112-112 112-113c2-1 3-4 3-6 0-3-1-5-3-7z m169 305l-107-369c0-2-2-4-4-5-2-2-5-2-7-1l-18 5c-2 1-4 2-5 4-1 2-2 5-1 7l107 369c0 3 2 4 4 6 2 1 5 1 7 0l18-4c2-1 4-3 5-5 1-2 2-4 1-7z m188-186l-134-133c-1-2-4-3-6-3-3 0-5 1-7 3l-14 14c-2 2-3 4-3 7 0 2 1 5 3 6l112 113-112 112c-2 2-3 4-3 7 0 2 1 4 3 6l14 14c2 2 4 3 7 3 2 0 5-1 6-3l134-133c1-2 2-4 2-6 0-3-1-5-2-7z"/>
<glyph glyph-name="code-fork" unicode="&#69;" d="M192 91c0 8-3 15-8 20-5 5-12 8-19 8-8 0-15-3-20-8-5-5-8-12-8-20 0-7 3-14 8-19 5-5 12-8 20-8 7 0 14 3 19 8 5 5 8 12 8 19z m0 330c0 7-3 14-8 19-5 5-12 8-19 8-8 0-15-3-20-8-5-5-8-12-8-19 0-8 3-15 8-20 5-5 12-8 20-8 7 0 14 3 19 8 5 5 8 12 8 20z m183-37c0 8-3 14-8 19-5 6-12 8-20 8-7 0-14-2-19-8-5-5-8-11-8-19 0-8 3-14 8-19 5-6 12-8 19-8 8 0 15 2 20 8 5 5 8 11 8 19z m27 0c0-10-2-19-7-28-5-8-12-15-20-19-1-55-22-95-65-119-13-7-32-15-58-23-24-7-40-14-48-20-8-6-12-16-12-29l0-7c8-5 15-12 20-20 5-8 7-18 7-28 0-15-5-28-16-38-10-11-23-16-38-16-16 0-29 5-39 16-11 10-16 23-16 38 0 10 2 20 7 28 5 8 12 15 20 20l0 234c-8 5-15 12-20 20-5 8-7 18-7 28 0 15 5 28 16 38 10 11 23 16 39 16 15 0 28-5 38-16 11-10 16-23 16-38 0-10-2-20-7-28-5-8-12-15-20-20l0-142c10 5 25 11 44 16 10 4 19 6 25 9 6 2 13 5 20 9 7 3 13 7 17 11 4 4 8 9 12 15 3 5 6 12 8 19 1 8 2 17 2 27-8 4-15 11-20 19-5 9-7 18-7 28 0 15 5 28 16 39 10 11 23 16 38 16 16 0 29-5 39-16 11-11 16-24 16-39z"/>
<glyph glyph-name="cog" unicode="&#70;" d="M329 256c0 20-7 37-21 52-15 14-32 21-52 21-20 0-37-7-52-21-14-15-21-32-21-52 0-20 7-37 21-52 15-14 32-21 52-21 20 0 37 7 52 21 14 15 21 32 21 52z m146 31l0-63c0-3 0-5-2-7-1-2-3-3-6-4l-52-8c-4-10-8-19-12-26 7-9 17-22 31-39 2-2 3-5 3-7 0-3-1-5-3-7-5-7-14-17-28-31-14-13-23-20-27-20-2 0-5 1-7 3l-40 31c-8-5-17-8-26-11-3-26-6-44-8-53-1-6-5-8-10-8l-64 0c-2 0-5 0-7 2-2 2-3 4-3 6l-8 53c-9 3-18 6-26 10l-40-30c-2-2-4-3-7-3-3 0-5 1-7 3-24 22-40 38-47 48-2 2-2 4-2 7 0 2 0 4 2 6 3 4 8 11 14 19 7 9 12 16 16 21-5 9-9 19-12 28l-52 8c-3 0-5 1-6 3-2 2-2 4-2 7l0 63c0 3 0 5 2 7 1 2 3 3 5 4l53 8c3 8 7 17 12 26-8 11-18 24-31 39-2 3-3 5-3 7 0 2 1 4 3 7 5 7 14 17 28 30 14 14 23 21 27 21 2 0 5-1 7-3l40-31c8 5 17 8 26 11 3 26 6 44 8 53 1 6 5 8 10 8l64 0c2 0 5 0 7-2 2-2 3-4 3-6l8-53c9-3 18-6 26-10l40 30c2 2 4 3 7 3 3 0 5-1 7-3 25-23 41-39 47-49 2-1 2-3 2-6 0-2 0-4-2-6-3-4-8-11-14-19-7-9-12-16-16-21 5-9 9-18 12-28l52-8c3 0 5-1 6-3 2-2 2-4 2-7z"/>
<glyph glyph-name="cogs" unicode="&#71;" d="M238 256c0 20-7 37-22 52-14 14-31 21-51 21-21 0-38-7-52-21-14-15-22-32-22-52 0-20 8-37 22-52 14-14 31-21 52-21 20 0 37 7 51 21 15 15 22 32 22 52z m219-146c0 10-3 18-11 25-7 8-16 11-25 11-10 0-19-3-26-11-7-7-11-15-11-25 0-10 4-19 11-26 7-7 15-11 26-11 10 0 18 4 25 11 8 7 11 16 11 26z m0 292c0 10-3 19-11 26-7 7-16 11-25 11-10 0-19-4-26-11-7-7-11-16-11-26 0-10 4-18 11-26 7-7 15-10 26-10 10 0 18 3 25 10 8 8 11 16 11 26z m-110-120l0-53c0-2 0-4-2-5-1-2-2-3-4-3l-44-7c-3-7-6-14-10-22 7-9 15-20 26-33 1-2 2-4 2-6 0-2-1-4-2-5-4-6-12-14-23-26-12-11-19-17-23-17-2 0-4 1-6 2l-33 26c-7-3-14-6-22-9-2-20-4-35-6-44-2-5-4-7-9-7l-53 0c-2 0-4 1-6 2-1 2-2 3-3 5l-6 44c-7 2-14 5-22 9l-33-26c-2-1-4-2-6-2-2 0-4 1-6 3-27 25-41 40-41 45 0 2 1 4 2 6 2 3 6 8 12 15 5 7 10 13 13 17-4 9-8 17-10 24l-43 7c-2 0-4 1-5 2-2 2-2 4-2 6l0 53c0 2 0 4 2 5 1 2 3 3 4 3l45 7c2 7 5 14 9 22-7 9-15 20-26 33-1 2-2 4-2 6 0 2 1 4 2 5 4 6 12 14 23 26 12 11 19 17 23 17 2 0 4-1 6-2l33-26c6 3 14 6 22 9 2 21 4 35 6 44 2 5 5 7 9 7l53 0c2 0 4-1 6-2 2-2 3-3 3-5l6-44c7-2 14-5 22-9l33 26c2 1 4 2 6 2 2 0 4-1 6-3 28-25 41-40 41-45 0-2 0-4-2-6-2-3-6-8-12-15-5-8-10-13-13-17 5-10 8-17 10-24l44-6c1-1 3-2 4-3 2-2 2-4 2-6z m183-152l0-40c0-3-14-6-42-9-3-5-5-10-9-15 10-22 15-35 15-39 0-1-1-2-1-2-24-14-35-21-36-21-1 0-6 5-13 14-7 9-12 15-15 19-4 0-7 0-8 0-2 0-5 0-9 0-3-4-8-10-15-19-7-9-11-14-13-14 0 0-12 7-35 21-1 0-2 1-2 2 0 4 5 17 15 39-3 5-6 10-9 15-28 3-42 6-42 9l0 40c0 3 14 6 42 9 3 5 6 10 9 14-10 22-15 35-15 40 0 1 1 1 2 2 0 0 4 2 10 6 5 3 11 6 16 9 6 3 9 5 9 5 2 0 6-5 13-13 7-9 12-16 15-20 4 1 7 1 9 1 1 0 4 0 8-1 10 14 19 24 26 32l2 1c1 0 13-7 36-20 0-1 1-1 1-2 0-5-5-18-15-40 3-4 6-9 9-14 28-3 42-6 42-9z m0 292l0-40c0-3-14-6-42-9-3-5-5-10-9-14 10-22 15-35 15-40 0-1-1-1-1-2-24-13-35-20-36-20-1 0-6 4-13 13-7 9-12 16-15 20-4-1-7-1-8-1-2 0-5 0-9 1-3-4-8-11-15-20-7-9-11-13-13-13 0 0-12 7-35 20-1 1-2 1-2 2 0 5 5 18 15 40-3 4-6 9-9 14-28 3-42 6-42 9l0 40c0 3 14 6 42 9 3 6 6 11 9 15-10 22-15 35-15 39 0 1 1 2 2 2 0 1 4 3 10 6 5 4 11 7 16 10 6 3 9 4 9 4 2 0 6-4 13-13 7-9 12-15 15-19 4 0 7 0 9 0 1 0 4 0 8 0 10 13 19 24 26 32l2 0c1 0 13-6 36-20 0 0 1-1 1-2 0-4-5-17-15-39 3-4 6-9 9-15 28-3 42-6 42-9z"/>
<glyph glyph-name="commenting-o" unicode="&#72;" d="M183 256c0-10-4-19-11-26-7-7-16-11-26-11-10 0-18 4-26 11-7 7-10 16-10 26 0 10 3 19 10 26 8 7 16 11 26 11 10 0 19-4 26-11 7-7 11-16 11-26z m110 0c0-10-4-19-11-26-7-7-16-11-26-11-10 0-19 4-26 11-7 7-11 16-11 26 0 10 4 19 11 26 7 7 16 11 26 11 10 0 19-4 26-11 7-7 11-16 11-26z m109 0c0-10-3-19-10-26-8-7-16-11-26-11-10 0-19 4-26 11-7 7-11 16-11 26 0 10 4 19 11 26 7 7 16 11 26 11 10 0 18-4 26-11 7-7 10-16 10-26z m-146 146c-39 0-75-6-109-20-34-13-61-31-81-53-19-23-29-47-29-73 0-21 6-42 20-61 14-19 33-36 58-50l24-14-7-28c-5-17-12-34-20-49 29 12 55 28 78 49l13 11 16-2c13-2 25-2 37-2 39 0 75 6 109 20 34 13 61 31 81 53 19 23 29 47 29 73 0 26-10 50-29 73-20 22-47 40-81 53-34 14-70 20-109 20z m256-146c0-33-11-64-34-92-23-28-54-50-93-66-40-17-83-25-129-25-13 0-27 1-41 2-38-33-82-56-132-69-9-2-20-4-32-6l-2 0c-3 0-5 1-8 3-2 2-3 5-4 8l0 0c-1 1-1 2 0 4 0 1 0 2 0 2 0 1 1 2 2 3l1 3 2 2 3 3c1 1 4 5 8 10 5 5 8 8 10 10 2 3 5 6 9 12 4 5 7 10 9 14 3 5 5 10 8 17 3 7 5 14 8 22-30 17-54 38-71 63-17 25-26 51-26 80 0 25 7 48 20 71 14 23 32 42 55 58 23 17 50 30 82 39 31 10 64 15 99 15 35 0 68-5 99-15 32-9 59-22 82-39 23-16 41-35 55-58 13-23 20-46 20-71z"/>
<glyph glyph-name="commenting" unicode="&#73;" d="M183 256c0 10-4 19-11 26-7 7-16 11-26 11-10 0-18-4-26-11-7-7-10-16-10-26 0-10 3-19 10-26 8-7 16-11 26-11 10 0 19 4 26 11 7 7 11 16 11 26z m110 0c0 10-4 19-11 26-7 7-16 11-26 11-10 0-19-4-26-11-7-7-11-16-11-26 0-10 4-19 11-26 7-7 16-11 26-11 10 0 19 4 26 11 7 7 11 16 11 26z m109 0c0 10-3 19-10 26-8 7-16 11-26 11-10 0-19-4-26-11-7-7-11-16-11-26 0-10 4-19 11-26 7-7 16-11 26-11 10 0 18 4 26 11 7 7 10 16 10 26z m110 0c0-33-11-64-34-92-23-28-54-50-93-66-40-17-83-25-129-25-21 0-41 2-60 5-33-33-75-54-125-65-9-2-18-3-24-4-2 0-5 1-6 2-2 1-4 3-4 5-1 3 1 6 6 11 1 1 3 3 6 6 4 3 6 5 8 6 1 2 3 4 6 8 3 3 6 6 7 9 2 2 4 6 6 10 2 5 4 9 6 14 1 5 2 10 4 16 1 7 2 14 3 21-27 17-49 38-65 62-16 24-24 50-24 77 0 33 11 64 34 92 23 28 54 50 93 66 40 17 83 25 129 25 46 0 89-8 129-25 39-16 70-38 93-66 23-28 34-59 34-92z"/>
<glyph glyph-name="comments" unicode="&#74;" d="M402 293c0-27-9-51-27-74-17-22-42-40-73-53-31-13-64-20-101-20-16 0-33 2-50 5-24-17-50-29-80-37-6-1-15-3-24-4l-1 0c-2 0-4 0-6 2-2 2-3 4-3 6 0 1 0 1 0 2 0 1 0 1-1 2 0 0 1 1 1 1l1 2 1 1 1 2 1 1 1 2c1 1 3 3 7 7 3 3 6 6 7 8 2 2 4 5 7 8 2 4 5 8 7 11 2 4 4 8 6 13-24 14-42 31-56 51-14 20-20 41-20 64 0 26 9 51 27 73 17 22 42 40 73 53 31 13 64 20 101 20 36 0 70-7 101-20 31-13 55-31 73-53 18-22 27-47 27-73z m110-74c0-22-7-44-20-64-14-20-32-36-56-50 2-5 4-9 6-13 2-4 4-7 7-11 3-3 5-6 6-8 2-2 4-5 8-8 3-4 5-6 6-8 1 0 1 0 2-1 0-1 1-1 1-1 0-1 1-1 1-2 0 0 1-1 1-1l1-2 0-1 0-2 0-2c0-3-2-5-4-6-1-2-4-3-6-2-9 1-18 2-24 4-30 8-56 20-80 37-17-3-34-5-50-5-52 0-97 13-135 38 11-1 19-1 25-1 31 0 60 4 88 13 29 8 54 20 76 36 24 18 42 38 55 61 12 23 19 47 19 73 0 14-2 29-7 43 25-14 44-30 59-51 14-20 21-42 21-66z"/>
<glyph glyph-name="comments-o" unicode="&#75;" d="M201 402c-29 0-56-5-82-15-25-9-45-23-60-40-15-17-22-35-22-54 0-16 5-31 15-46 10-14 24-27 42-37l28-16-10-24c6 4 12 7 18 11l12 9 15-3c15-3 30-4 44-4 29 0 57 5 82 15 25 10 45 23 60 40 15 17 23 35 23 55 0 19-8 37-23 54-15 17-35 31-60 40-25 10-53 15-82 15z m0 37c37 0 70-7 101-20 31-13 56-31 73-53 18-22 27-47 27-73 0-27-9-51-27-74-17-22-42-40-73-53-31-13-64-20-101-20-16 0-33 2-50 5-24-17-50-29-80-37-6-1-15-3-24-4l-1 0c-2 0-4 0-6 2-2 2-3 4-3 6 0 1 0 1 0 2 0 1 0 1-1 2 0 0 1 1 1 1l1 2 1 1 1 2 1 1 1 2c1 1 3 3 7 7 3 3 6 6 7 8 2 2 4 5 7 8 2 4 5 8 7 11 2 4 4 8 6 13-24 14-42 31-56 51-14 20-20 41-20 64 0 26 9 51 27 73 17 22 42 40 73 53 31 13 64 20 101 20z m235-334c2-5 4-9 6-13 2-4 4-7 7-11 3-3 5-6 6-8 2-2 4-5 8-8 3-4 5-6 6-8 1 0 1 0 2-1 0-1 1-1 1-1 0-1 1-1 1-2 0 0 1-1 1-1l1-2 0-1 0-2 0-2c0-3-2-5-4-6-1-2-4-3-6-2-9 1-18 2-24 4-30 8-56 20-80 37-17-3-34-5-50-5-52 0-97 13-135 38 11-1 19-1 25-1 31 0 60 4 88 13 29 8 54 20 76 36 24 18 42 38 55 61 12 23 19 47 19 73 0 14-2 29-7 43 25-14 44-30 59-51 14-20 21-42 21-66 0-22-7-44-20-64-14-20-32-36-56-50z"/>
<glyph glyph-name="compass" unicode="&#76;" d="M219 201l74 37-74 36z m110 169l0-155-146-73 0 155z m82-114c0 28-7 54-20 78-14 24-33 43-57 57-24 13-50 20-78 20-28 0-54-7-78-20-24-14-43-33-57-57-13-24-20-50-20-78 0-28 7-54 20-78 14-24 33-43 57-57 24-13 50-20 78-20 28 0 54 7 78 20 24 14 43 33 57 57 13 24 20 50 20 78z m64 0c0-40-9-77-29-110-20-34-46-60-80-80-33-20-70-29-110-29-40 0-77 9-110 29-34 20-60 46-80 80-20 33-29 70-29 110 0 40 9 77 29 110 20 34 46 60 80 80 33 20 70 29 110 29 40 0 77-9 110-29 34-20 60-46 80-80 20-33 29-70 29-110z"/>
<glyph glyph-name="credit-card" unicode="&#77;" d="M485 475c12 0 23-4 32-13 9-9 13-20 13-32l0-348c0-12-4-23-13-32-9-9-20-13-32-13l-458 0c-12 0-23 4-32 13-9 9-13 20-13 32l0 348c0 12 4 23 13 32 9 9 20 13 32 13z m-458-36c-2 0-4-1-6-3-2-2-3-4-3-6l0-64 476 0 0 64c0 2-1 4-3 6-2 2-4 3-6 3z m458-366c2 0 4 1 6 3 2 2 3 4 3 6l0 174-476 0 0-174c0-2 1-4 3-6 2-2 4-3 6-3z m-430 37l0 36 73 0 0-36z m110 0l0 36 109 0 0-36z"/>
<glyph glyph-name="ellipsis-v" unicode="&#78;" d="M311 155l0-54c0-8-3-15-8-20-5-5-12-8-20-8l-54 0c-8 0-15 3-20 8-5 5-8 12-8 20l0 54c0 8 3 15 8 20 5 5 12 8 20 8l54 0c8 0 15-3 20-8 5-5 8-12 8-20z m0 147l0-55c0-8-3-14-8-20-5-5-12-8-20-8l-54 0c-8 0-15 3-20 8-5 6-8 12-8 20l0 55c0 7 3 14 8 19 5 5 12 8 20 8l54 0c8 0 15-3 20-8 5-5 8-12 8-19z m0 146l0-55c0-7-3-14-8-19-5-6-12-8-20-8l-54 0c-8 0-15 2-20 8-5 5-8 12-8 19l0 55c0 8 3 14 8 19 5 6 12 8 20 8l54 0c8 0 15-2 20-8 5-5 8-11 8-19z"/>
<glyph glyph-name="envelope-o" unicode="&#79;" d="M475 82l0 220c-6-7-12-13-19-19-51-39-92-72-122-97-10-8-18-14-24-19-6-4-14-9-24-14-11-4-21-7-30-7l0 0c-9 0-19 3-30 7-10 5-18 10-24 14-6 5-14 11-24 19-30 25-71 58-122 97-7 6-13 12-19 19l0-220c0-2 0-4 2-6 2-2 4-3 7-3l420 0c3 0 5 1 7 3 2 2 2 4 2 6z m0 301l0 7 0 3-1 4-1 2-3 3-4 0-420 0c-3 0-5-1-7-2-2-2-2-4-2-7 0-32 14-59 42-81 36-29 75-59 114-91 1-1 5-3 10-8 6-5 10-8 13-11 4-2 8-5 13-9 5-3 10-6 14-8 5-1 9-2 13-2l0 0c4 0 8 1 13 2 4 2 9 5 14 8 5 4 9 7 13 9 3 3 7 6 13 11 5 5 9 7 10 8 39 32 78 62 114 91 11 8 20 19 29 33 9 14 13 26 13 38z m37 10l0-311c0-12-4-23-13-32-9-9-20-13-33-13l-420 0c-13 0-24 4-33 13-9 9-13 20-13 32l0 311c0 13 4 23 13 32 9 9 20 14 33 14l420 0c13 0 24-5 33-14 9-9 13-19 13-32z"/>
<glyph glyph-name="exclamation" unicode="&#80;" d="M311 155l0-64c0-5-2-9-6-12-3-4-7-6-12-6l-74 0c-5 0-9 2-12 6-4 3-6 7-6 12l0 64c0 5 2 10 6 13 3 4 7 6 12 6l74 0c5 0 9-2 12-6 4-3 6-8 6-13z m8 302l-8-219c0-5-2-10-5-13-4-4-8-6-13-6l-74 0c-5 0-9 2-13 6-3 3-5 8-5 13l-8 219c-1 5 1 9 5 13 3 4 7 5 12 5l92 0c5 0 9-1 12-5 4-4 6-8 5-13z"/>
<glyph glyph-name="eye" unicode="&#81;" d="M475 238c-29 45-65 78-108 101 11-20 17-42 17-65 0-35-13-65-38-90-25-25-55-38-90-38-35 0-65 13-90 38-25 25-38 55-38 90 0 23 6 45 17 65-43-23-79-56-108-101 25-39 57-70 95-94 38-23 79-34 124-34 45 0 86 11 124 34 38 24 70 55 95 94z m-205 109c0 4-2 7-4 10-3 3-6 4-10 4-24 0-44-8-61-25-17-17-26-38-26-62 0-4 1-7 4-9 3-3 6-4 10-4 4 0 7 1 10 4 2 2 4 5 4 9 0 17 5 31 17 42 12 12 26 18 42 18 4 0 7 1 10 4 2 2 4 6 4 9z m242-109c0-7-2-13-6-20-26-44-62-79-107-105-45-27-93-40-143-40-50 0-98 13-143 40-45 26-81 61-107 105-4 7-6 13-6 20 0 6 2 13 6 19 26 44 62 79 107 106 45 26 93 39 143 39 50 0 98-13 143-39 45-27 81-62 107-106 4-6 6-13 6-19z"/>
<glyph glyph-name="facebook-official" unicode="&#82;" d="M451 475c7 0 13-2 17-7 5-4 7-10 7-17l0-390c0-7-2-13-7-17-4-5-10-7-17-7l-112 0 0 170 57 0 9 66-66 0 0 42c0 11 3 19 7 24 5 5 13 8 26 8l35 0 0 60c-12 1-29 2-51 2-26 0-46-7-62-23-15-15-23-36-23-64l0-49-57 0 0-66 57 0 0-170-210 0c-7 0-13 2-17 7-5 4-7 10-7 17l0 390c0 7 2 13 7 17 4 5 10 7 17 7z"/>
<glyph glyph-name="facebook" unicode="&#83;" d="M384 509l0-76-45 0c-17 0-28-3-33-10-6-7-9-17-9-31l0-54 84 0-11-85-73 0 0-216-87 0 0 216-73 0 0 85 73 0 0 62c0 36 10 63 29 83 20 19 47 29 80 29 28 0 49-1 65-3z"/>
<glyph glyph-name="floppy-o" unicode="&#84;" d="M146 73l220 0 0 110-220 0z m256 0l37 0 0 256c0 3-1 6-3 11-2 5-4 8-6 10l-80 80c-2 2-5 4-10 6-4 2-8 3-11 3l0-119c0-8-3-14-8-19-5-6-12-8-19-8l-165 0c-7 0-14 2-19 8-6 5-8 11-8 19l0 119-37 0 0-366 37 0 0 119c0 8 2 14 8 19 5 6 12 8 19 8l238 0c7 0 14-2 19-8 6-5 8-11 8-19z m-109 265l0 92c0 2-1 4-3 6-2 2-4 3-7 3l-54 0c-3 0-5-1-7-3-2-2-3-4-3-6l0-92c0-2 1-4 3-6 2-2 4-3 7-3l54 0c3 0 5 1 7 3 2 2 3 4 3 6z m182-9l0-265c0-8-2-14-8-19-5-6-11-8-19-8l-384 0c-8 0-14 2-19 8-6 5-8 11-8 19l0 384c0 8 2 14 8 19 5 6 11 8 19 8l265 0c8 0 16-1 25-5 9-4 17-9 22-14l80-80c5-5 10-13 14-22 4-9 5-17 5-25z"/>
<glyph glyph-name="folder-o" unicode="&#85;" d="M457 137l0 201c0 8-3 14-8 20-5 5-12 8-19 8l-201 0c-8 0-15 2-20 8-5 5-8 12-8 19l0 18c0 8-3 15-8 20-5 5-12 8-19 8l-92 0c-7 0-14-3-19-8-5-5-8-12-8-20l0-274c0-7 3-14 8-19 5-6 12-8 19-8l348 0c7 0 14 2 19 8 5 5 8 12 8 19z m37 201l0-201c0-17-7-32-19-45-13-13-28-19-45-19l-348 0c-17 0-32 6-45 19-12 13-19 28-19 45l0 274c0 18 7 33 19 46 13 12 28 18 45 18l92 0c17 0 32-6 45-18 12-13 19-28 19-46l0-9 192 0c17 0 32-6 45-19 12-12 19-27 19-45z"/>
<glyph glyph-name="folder-open-o" unicode="&#86;" d="M491 246c0 7-5 10-16 10l-310 0c-8 0-16-2-25-6-9-4-15-9-20-15l-84-104c-4-4-5-8-5-11 0-7 5-10 15-10l311 0c7 0 15 2 24 6 9 4 16 9 20 15l84 104c4 4 6 8 6 11z m-326 47l219 0 0 45c0 8-3 14-8 20-5 5-12 8-19 8l-165 0c-8 0-14 2-19 8-6 5-8 12-8 19l0 18c0 8-3 15-8 20-6 5-12 8-20 8l-91 0c-8 0-14-3-20-8-5-5-8-12-8-20l0-243 73 90c9 10 20 18 34 25 13 6 27 10 40 10z m362-47c0-12-4-23-13-34l-84-104c-8-10-20-18-33-25-14-7-28-10-40-10l-311 0c-18 0-33 6-45 19-13 13-19 28-19 45l0 274c0 18 6 33 19 46 12 12 27 18 45 18l91 0c18 0 33-6 45-18 13-13 19-28 19-46l0-9 156 0c17 0 32-6 45-19 12-12 19-27 19-45l0-45 54 0c11 0 20-3 29-7 8-5 15-12 19-21 3-6 4-12 4-19z"/>
<glyph glyph-name="heart-o" unicode="&#87;" d="M475 342c0 15-2 29-6 41-4 11-9 21-15 28-7 7-15 12-24 17-9 4-18 7-27 9-8 1-18 2-28 2-9 0-20-3-32-7-11-5-22-11-31-19-10-7-18-14-25-20-7-7-12-13-17-18-3-4-8-6-14-6-6 0-11 2-14 6-5 5-10 11-17 18-7 6-15 13-25 20-9 8-20 14-31 19-12 4-23 7-32 7-10 0-20-1-28-2-9-2-18-5-27-9-9-5-17-10-24-17-6-7-11-17-15-28-4-12-6-26-6-41 0-32 17-66 53-102l166-160 166 160c36 36 53 70 53 102z m37 0c0-42-22-85-65-129l-178-171c-4-4-8-5-13-5-5 0-9 1-13 5l-178 172c-2 1-4 4-8 7-3 4-8 10-16 19-7 9-13 18-19 28-6 9-11 21-15 34-5 14-7 27-7 40 0 42 12 74 36 98 24 24 58 35 101 35 11 0 23-2 36-6 12-4 23-9 34-16 11-7 20-14 27-20 8-6 15-12 22-19 7 7 14 13 22 19 7 6 16 13 27 20 11 7 22 12 34 16 13 4 25 6 36 6 43 0 77-11 101-35 24-24 36-56 36-98z"/>
<glyph glyph-name="history" unicode="&#88;" d="M475 256c0-30-5-58-17-85-12-27-27-51-47-70-19-20-43-35-70-47-27-12-55-17-85-17-33 0-64 6-93 20-30 14-55 34-76 59-1 2-2 4-2 6 0 3 1 4 3 6l39 39c2 2 4 3 7 3 3 0 5-2 7-3 13-19 31-33 51-42 20-10 41-15 64-15 20 0 39 4 57 11 18 8 33 18 46 32 14 13 24 28 32 46 7 18 11 37 11 57 0 20-4 39-11 57-8 18-18 33-32 46-13 14-28 24-46 32-18 7-37 11-57 11-19 0-37-3-54-10-17-7-32-16-45-29l39-39c6-6 7-13 4-20-4-8-9-11-17-11l-128 0c-5 0-9 1-13 5-4 4-5 8-5 13l0 128c0 8 3 13 11 17 7 3 14 2 20-4l37-37c20 19 44 34 70 45 26 10 53 15 81 15 30 0 58-5 85-17 27-12 51-27 70-47 20-19 35-43 47-70 12-27 17-55 17-85z m-182 82l0-128c0-2-1-5-3-6-2-2-4-3-7-3l-91 0c-3 0-5 1-7 3-1 1-2 4-2 6l0 19c0 2 1 4 2 6 2 2 4 3 7 3l64 0 0 100c0 3 1 5 3 7 1 2 3 2 6 2l18 0c3 0 5 0 7-2 2-2 3-4 3-7z"/>
<glyph glyph-name="inbox" unicode="&#89;" d="M329 238l90 0c0 0 0 1-1 2 0 1 0 2 0 2l-61 142-202 0-61-142c0 0 0-1 0-2-1-1-1-2-1-2l90 0 27-55 92 0z m146-9l0-138c0-5-1-9-5-12-4-4-8-6-13-6l-402 0c-5 0-9 2-13 6-4 3-5 7-5 12l0 138c0 12 2 24 7 35l68 158c2 5 5 9 10 12 5 3 10 5 15 5l238 0c5 0 10-2 15-5 5-3 8-7 10-12l68-158c5-11 7-23 7-35z"/>
<glyph glyph-name="location-arrow" unicode="&#90;" d="M455 412l-183-365c-3-7-8-10-16-10-1 0-2 0-4 0-4 1-8 3-10 7-3 3-4 7-4 11l0 164-165 0c-4 0-8 2-11 4-3 3-6 6-7 10-1 5 0 9 2 12 1 4 4 7 8 9l366 183c2 1 5 2 8 2 5 0 9-2 13-6 3-2 4-6 5-9 1-4 0-8-2-12z"/>
<glyph glyph-name="list-ul" unicode="&#48;" d="M110 110c0-16-6-28-16-39-11-11-24-16-39-16-15 0-28 5-39 16-11 11-16 23-16 39 0 15 5 28 16 39 11 10 24 16 39 16 15 0 28-6 39-16 10-11 16-24 16-39z m0 146c0-15-6-28-16-39-11-11-24-16-39-16-15 0-28 5-39 16-11 11-16 24-16 39 0 15 5 28 16 39 11 11 24 16 39 16 15 0 28-5 39-16 10-11 16-24 16-39z m402-119l0-55c0-2-1-4-3-6-2-2-4-3-6-3l-348 0c-2 0-4 1-6 3-2 2-3 4-3 6l0 55c0 3 1 5 3 7 2 1 4 2 6 2l348 0c2 0 4-1 6-2 2-2 3-4 3-7z m-402 265c0-15-6-28-16-39-11-10-24-16-39-16-15 0-28 6-39 16-11 11-16 24-16 39 0 16 5 28 16 39 11 11 24 16 39 16 15 0 28-5 39-16 10-11 16-23 16-39z m402-119l0-54c0-3-1-5-3-7-2-2-4-3-6-3l-348 0c-2 0-4 1-6 3-2 2-3 4-3 7l0 54c0 3 1 5 3 7 2 2 4 3 6 3l348 0c2 0 4-1 6-3 2-2 3-4 3-7z m0 147l0-55c0-3-1-5-3-7-2-1-4-2-6-2l-348 0c-2 0-4 1-6 2-2 2-3 4-3 7l0 55c0 2 1 4 3 6 2 2 4 3 6 3l348 0c2 0 4-1 6-3 2-2 3-4 3-6z"/>
<glyph glyph-name="lock" unicode="&#49;" d="M183 293l146 0 0 54c0 21-7 38-21 52-15 14-32 22-52 22-20 0-37-8-52-22-14-14-21-31-21-52z m238-28l0-164c0-8-3-15-8-20-6-5-12-8-20-8l-274 0c-8 0-14 3-20 8-5 5-8 12-8 20l0 164c0 8 3 14 8 20 6 5 12 8 20 8l9 0 0 54c0 35 13 66 38 91 25 25 55 37 90 37 35 0 65-12 90-37 25-25 38-56 38-91l0-54 9 0c8 0 14-3 20-8 5-6 8-12 8-20z"/>
<glyph glyph-name="twitter" unicode="&#50;" d="M481 395c-13-18-28-34-46-47 0-3 0-7 0-12 0-25-3-50-11-74-7-25-18-49-33-71-14-23-32-43-52-61-21-17-45-31-74-41-29-11-60-16-92-16-52 0-99 14-142 42 7-1 14-2 22-2 43 0 81 14 115 40-20 0-38 6-54 18-16 12-27 27-33 46 7-1 13-2 18-2 8 0 16 1 24 4-21 4-39 15-53 31-14 17-21 37-21 59l0 1c13-7 27-11 42-11-13 8-23 19-30 32-8 14-11 29-11 44 0 17 4 33 12 47 23-28 51-51 84-68 33-17 69-27 107-29-2 8-3 15-3 22 0 25 9 47 27 65 18 18 40 27 66 27 26 0 49-10 67-29 21 4 40 11 59 22-7-22-21-39-41-51 18 2 35 7 53 14z"/>
<glyph glyph-name="tumblr" unicode="&#51;" d="M379 132l23-67c-4-7-15-13-31-19-17-6-34-9-51-9-20-1-38 2-54 7-17 5-30 12-41 21-11 9-20 19-27 30-8 12-13 23-16 35-3 11-5 22-5 33l0 156-48 0 0 61c14 5 26 12 37 20 11 8 20 17 26 26 6 9 12 18 17 29 4 11 7 20 9 28 2 9 4 17 5 26 0 1 0 1 1 2 1 1 1 1 2 1l70 0 0-121 95 0 0-72-96 0 0-148c0-6 1-11 2-16 2-5 4-10 7-15 3-5 7-9 14-12 6-3 14-4 23-4 15 0 28 3 38 8z"/>
<glyph glyph-name="unlock-alt" unicode="&#52;" d="M393 293c8 0 14-3 20-8 5-6 8-12 8-20l0-164c0-8-3-15-8-20-6-5-12-8-20-8l-274 0c-8 0-14 3-20 8-5 5-8 12-8 20l0 164c0 8 3 14 8 20 6 5 12 8 20 8l9 0 0 91c0 35 13 65 38 90 25 25 55 38 90 38 35 0 65-13 90-38 25-25 38-55 38-90 0-5-2-9-5-13-4-3-8-5-13-5l-19 0c-5 0-9 2-12 5-4 4-6 8-6 13 0 20-7 37-21 52-15 14-32 21-52 21-20 0-37-7-52-21-14-15-21-32-21-52l0-91z"/>
<glyph glyph-name="unlock" unicode="&#53;" d="M494 347l0-73c0-5-2-9-6-13-3-3-8-5-13-5l-18 0c-5 0-9 2-13 5-3 4-5 8-5 13l0 73c0 21-7 38-22 52-14 14-31 22-51 22-20 0-38-8-52-22-14-14-21-31-21-52l0-54 27 0c8 0 14-3 19-8 6-6 8-12 8-20l0-164c0-8-2-15-8-20-5-5-11-8-19-8l-274 0c-8 0-14 3-20 8-5 5-8 12-8 20l0 164c0 8 3 14 8 20 6 5 12 8 20 8l192 0 0 54c0 36 12 66 37 91 25 25 55 37 91 37 35 0 65-12 90-37 25-25 38-55 38-91z"/>
<glyph glyph-name="bars" unicode="&#54;" d="M475 128l0-37c0-5-1-9-5-12-4-4-8-6-13-6l-402 0c-5 0-9 2-13 6-4 3-5 7-5 12l0 37c0 5 1 9 5 13 4 3 8 5 13 5l402 0c5 0 9-2 13-5 4-4 5-8 5-13z m0 146l0-36c0-5-1-10-5-13-4-4-8-6-13-6l-402 0c-5 0-9 2-13 6-4 3-5 8-5 13l0 36c0 5 1 10 5 13 4 4 8 6 13 6l402 0c5 0 9-2 13-6 4-3 5-8 5-13z m0 147l0-37c0-5-1-9-5-13-4-3-8-5-13-5l-402 0c-5 0-9 2-13 5-4 4-5 8-5 13l0 37c0 5 1 9 5 12 4 4 8 6 13 6l402 0c5 0 9-2 13-6 4-3 5-7 5-12z"/>
<glyph glyph-name="bell-o" unicode="&#55;" d="M261 27c0 3-2 5-5 5-11 0-21 4-29 12-8 8-12 18-12 29 0 3-2 5-5 5-3 0-4-2-4-5 0-14 5-26 14-35 10-10 22-15 36-15 3 0 5 1 5 4z m-191 83l372 0c-51 57-76 136-76 237 0 10-3 20-7 30-5 11-11 21-20 30-8 9-20 17-35 23-14 6-30 9-48 9-18 0-34-3-48-9-15-6-27-14-35-23-9-9-15-19-20-30-4-10-7-20-7-30 0-101-25-180-76-237z m424 0c0-10-4-19-11-26-7-7-16-11-26-11l-128 0c0-20-7-37-21-52-15-14-32-21-52-21-20 0-37 7-52 21-14 15-21 32-21 52l-128 0c-10 0-19 4-26 11-7 7-11 16-11 26 10 8 18 16 26 25 8 9 16 20 25 34 8 14 15 29 21 45 6 16 10 36 14 59 4 23 6 48 6 74 0 29 11 56 33 81 22 25 52 40 88 45-2 4-2 8-2 12 0 7 2 14 8 19 5 5 11 8 19 8 8 0 14-3 19-8 6-5 8-12 8-19 0-4 0-8-2-12 36-5 66-20 88-45 22-25 33-52 33-81 0-26 2-51 6-74 4-23 8-43 14-59 6-16 13-31 21-45 9-14 17-25 25-34 8-9 16-17 26-25z"/>
<glyph glyph-name="bell-slash-o" unicode="&#56;" d="M261 27c0 3-2 5-5 5-11 0-21 4-29 12-8 8-12 18-12 29 0 3-2 5-5 5-3 0-4-2-4-5 0-14 5-26 14-35 10-10 22-15 36-15 3 0 5 1 5 4z m-154 136l251 217c-8 17-21 31-38 42-17 11-39 17-64 17-18 0-34-3-48-9-15-6-27-14-35-23-9-9-15-19-20-30-4-10-7-20-7-30 0-73-13-134-39-184z m387-53c0-10-4-19-11-26-7-7-16-11-26-11l-128 0c0-20-7-37-21-52-15-14-32-21-52-21-20 0-37 7-52 21-14 14-21 32-21 52l42 37 217 0c-32 35-54 79-65 131l32 28c11-68 40-121 85-159z m24 397l24-27c2-2 3-4 2-7 0-2-1-4-3-6l-534-464c-2-1-5-2-7-2-3 1-5 2-6 4l-24 27c-2 2-3 4-2 7 0 2 1 4 3 6l53 46c-4 6-6 12-6 19 10 8 18 16 26 25 8 9 16 20 25 34 8 14 15 29 21 45 6 16 10 36 14 59 4 23 6 48 6 74 0 29 11 56 33 81 22 25 52 40 88 45-2 4-2 8-2 12 0 7 2 14 8 19 5 5 11 8 19 8 8 0 14-3 19-8 6-5 8-12 8-19 0-4 0-8-2-12 24-3 45-11 63-23 18-12 32-27 42-45l119 104c2 1 5 2 7 2 3-1 5-2 6-4z"/>
<glyph glyph-name="icomoon" unicode="&#57;" d="M256 416l171-171-171-171-30 30 119 120-260 0 0 42 260 0-119 120z"/>
<glyph glyph-name="icomoon-1" unicode="&#33;" d="M256 74c94 0 171 77 171 171 0 94-77 171-171 171-94 0-171-77-171-171 0-94 77-171 171-171z m0 384c118 0 213-95 213-213 0-118-95-213-213-213-118 0-213 95-213 213 0 118 95 213 213 213z m-21-106l42 0 0-128-42 0z m0-171l42 0 0-43-42 0z"/>
<glyph glyph-name="icomoon-2" unicode="&#34;" d="M384 330l0 43-256 0 0-43z m0-64l0 43-256 0 0-43z m0-64l0 43-256 0 0-43z m43 256c23 0 42-19 42-42l0-256c0-23-19-43-42-43l-299 0-85-85 0 384c0 23 19 42 42 42z"/>
<glyph glyph-name="icomoon-3" unicode="&#35;" d="M149 202c23 0 43 20 43 43 0 23-20 43-43 43-23 0-42-20-42-43 0-23 19-43 42-43z m121 86l221 0 0-86-43 0 0-85-85 0 0 85-93 0c-17-50-65-85-121-85-71 0-128 57-128 128 0 71 57 128 128 128 56 0 104-35 121-85z"/>
<glyph glyph-name="icomoon-4" unicode="&#36;" d="M158 334l98-98 98 98 30-30-128-128-128 128z"/>
<glyph glyph-name="icomoon-5" unicode="&#37;" d="M329 158l-30-30-128 128 128 128 30-30-98-98z"/>
<glyph glyph-name="icomoon-6" unicode="&#38;" d="M183 152l98 98-98 98 30 30 128-128-128-128z"/>
<glyph glyph-name="icomoon-7" unicode="&#39;" d="M158 172l-30 30 128 128 128-128-30-30-98 98z"/>
<glyph glyph-name="icomoon-8" unicode="&#40;" d="M363 160l85 0 0-107-107 0 0 65-85 90-85-90 0-65-107 0 0 107 85 0 86 85 0 68c-25 9-43 32-43 60 0 35 29 64 64 64 35 0 64-29 64-64 0-28-18-51-43-60l0-68z"/>
<glyph glyph-name="icomoon-9" unicode="&#41;" d="M256 74c83 0 149 67 149 150 0 83-66 149-149 149-83 0-149-66-149-149 0-83 66-150 149-150z m150 269c26-33 42-74 42-119 0-106-86-192-192-192-106 0-192 86-192 192 0 106 86 192 192 192 45 0 87-17 120-43l30 31c11-9 21-19 30-30z m-171-141l0 128 42 0 0-128z m85 278l0-43-128 0 0 43z"/>
<glyph glyph-name="icomoon-10" unicode="&#42;" d="M209 311l-60-301 45 0 39 171 44-43 0-128 43 0 0 160-45 43 13 64c28-32 70-53 117-53l0 42c-41 0-74 22-91 52l-22 34c-9 13-21 21-36 21-6 0-11-2-17-2l-111-47 0-100 43 0 0 72z m79 73c-23 0-43 19-43 42 0 23 20 43 43 43 23 0 43-20 43-43 0-23-20-42-43-42z"/>
<glyph glyph-name="icomoon-11" unicode="&#43;" d="M320 96l0 253-128 45 0-253z m117 341c6 0 11-5 11-11l0-322c0-5-4-9-8-10l-120-41-128 45-114-44-3-1c-6 0-11 5-11 11l0 322c0 5 4 9 8 10l120 41 128-45 114 44z"/>
<glyph glyph-name="icomoon-12" unicode="&#44;" d="M427 266l0-42-260 0 119-120-30-30-171 171 171 171 30-30-119-120z"/>
<glyph glyph-name="icomoon-13" unicode="&#45;" d="M258 105c102 92 169 153 169 215 0 43-32 74-75 74-33 0-65-21-76-50l-40 0c-11 29-43 50-76 50-43 0-75-31-75-74 0-62 67-123 169-215l2-2z m94 332c66 0 117-51 117-117 0-81-72-146-182-246l-31-28-31 27c-110 100-182 166-182 247 0 66 51 117 117 117 37 0 73-18 96-45 23 27 59 45 96 45z"/>
<glyph glyph-name="icomoon-14" unicode="&#46;" d="M256 46l-31 28c-110 100-182 165-182 246 0 66 51 117 117 117 37 0 73-18 96-45 23 27 59 45 96 45 66 0 117-51 117-117 0-81-72-147-182-247z"/>
<glyph glyph-name="icomoon-15" unicode="&#47;" d="M256 224c57 0 171-29 171-86l0-64-342 0 0 64c0 57 114 86 171 86z m0 192c47 0 85-39 85-86 0-47-38-85-85-85-47 0-85 38-85 85 0 47 38 86 85 86z m0-233c-63 0-130-31-130-45l0-23 260 0 0 23c0 14-67 45-130 45z m0 192c-25 0-45-20-45-45 0-25 20-44 45-44 25 0 45 19 45 44 0 25-20 45-45 45z"/>
<glyph glyph-name="icomoon-16" unicode="&#58;" d="M256 74c94 0 171 77 171 171 0 38-14 75-37 105l-239-239c30-23 67-37 105-37z m-171 171c0-38 14-75 37-105l239 239c-30 23-67 37-105 37-94 0-171-77-171-171z m171 213c117 0 213-96 213-213 0-117-96-213-213-213-117 0-213 96-213 213 0 117 96 213 213 213z"/>
<glyph glyph-name="icomoon-17" unicode="&#59;" d="M427 245l-171-171-171 171 31 30 119-119 0 260 42 0 0-260 120 119z"/>
<glyph glyph-name="icomoon-18" unicode="&#60;" d="M85 245l171 171 171-171-31-30-119 119 0-260-42 0 0 260-120-119z"/>
<glyph glyph-name="icomoon-19" unicode="&#61;" d="M64 373l384 0 0-43-384 0z m0-149l0 42 384 0 0-42z m0-107l0 43 384 0 0-43z"/>
<glyph glyph-name="icomoon-20" unicode="&#62;" d="M354 318l30-30-128-128-128 128 30 30 98-98z"/>
<glyph glyph-name="icomoon-21" unicode="&#63;" d="M256 330l128-128-30-30-98 98-98-98-30 30z"/>
<glyph glyph-name="icomoon-22" unicode="&#64;" d="M405 364l-119-119 119-119-30-30-119 119-119-119-30 30 119 119-119 119 30 30 119-119 119 119z"/>
<glyph glyph-name="icomoon-23" unicode="&#91;" d="M213 416l-49-49 113-113 0-180-42 0 0 162-101 101-49-49 0 128z m86 0l128 0 0-128-49 49-62-62-30 30 62 62z"/>
<glyph glyph-name="icomoon-24" unicode="&#93;" d="M149 202l107 107 107-107z"/>
<glyph glyph-name="icomoon-25" unicode="&#94;" d="M149 288l214 0-107-107z"/>
<glyph glyph-name="icomoon-26" unicode="&#95;" d="M380 391c41-35 68-88 68-146 0-106-86-192-192-192-106 0-192 86-192 192 0 58 27 111 68 146l30-30c-33-27-55-69-55-116 0-83 66-149 149-149 83 0 149 66 149 149 0 47-21 88-55 115z m-103 46l0-213-42 0 0 213z"/>
<glyph glyph-name="icomoon-27" unicode="&#96;" d="M256 256c29 0 53 24 53 53 0 29-24 53-53 53-29 0-53-24-53-53 0-29 24-53 53-53z m0 202c83 0 149-66 149-149 0-112-149-277-149-277 0 0-149 165-149 277 0 83 66 149 149 149z"/>
<glyph glyph-name="icomoon-28" unicode="&#123;" d="M267 352l0-112 96-57-16-27-112 68 0 128z m-11-278c94 0 171 77 171 171 0 94-77 171-171 171-94 0-171-77-171-171 0-94 77-171 171-171z m0 384c118 0 213-95 213-213 0-118-95-213-213-213-118 0-213 95-213 213 0 118 95 213 213 213z"/>
<glyph glyph-name="icomoon-29" unicode="&#124;" d="M405 74l0 235-298 0 0-235z m0 342c23 0 43-20 43-43l0-299c0-23-20-42-43-42l-298 0c-24 0-43 19-43 42l0 299c0 23 19 43 43 43l21 0 0 42 43 0 0-42 170 0 0 42 43 0 0-42z m-42-150l0-42-43 0 0 42z m-86 0l0-42-42 0 0 42z m-85 0l0-42-43 0 0 42z"/>
<glyph glyph-name="beer" unicode="&#125;" d="M356 321l0 47c-1 26-21 36-43 36-5 22-25 38-48 38-5 0-9-1-13-2-3 7-9 13-16 17-8 4-17 7-26 7-27 0-50-22-50-49-21-3-43-22-44-47l0 0 0-265c0-29 21-55 50-55l137 0c28 0 53 26 53 55l0 6c24 7 40 28 40 54l0 104c0 26-16 47-40 54z m-191 78l15 2 0 14c0 18 13 33 32 33 6 0 11-2 17-5 4-2 7-6 8-9l5-12 14 3 1 0c2 1 6 1 8 1 15 0 29-10 33-25l3-12 12-1c13 0 22-2 25-18l-205 2c2 14 18 25 32 27z m175-296c0-20-18-39-37-39l-137 0c-20 0-34 19-34 39l0 249 208 0z m40 60c0-17-9-31-24-37l0 178c15-6 24-20 24-37z m-208 133l16 0 0-192-16 0z m56 0l16 0 0-192-16 0z m56 0l16 0 0-192-16 0z"/>
<glyph glyph-name="drink" unicode="&#126;" d="M224 344l-21 88-67 0 0-16 55 0 16-72-63 0 0-213c0-29 24-51 53-51l136 0c29 0 51 22 51 51l0 213z m-64-16l51 0 28-120-79 0z m208-197c0-20-15-35-35-35l-136 0c-20 0-37 15-37 35l0 61 83 0 16-68 15 4-15 64 109 0z m0 77l-112 0-28 120 140 0z"/>
<glyph glyph-name="book" unicode="&#92;" d="M487 375c7-10 9-23 5-36l-79-259c-3-12-11-23-22-31-11-8-22-12-35-12l-263 0c-15 0-29 5-43 15-13 10-23 23-28 37-5 13-5 25-1 37 0 0 0 3 1 7 1 5 1 8 1 11 0 2 0 4-1 6 0 3-1 5-1 6 1 2 2 4 3 6 1 2 2 4 4 6 2 3 4 5 5 7 5 7 9 16 13 26 4 10 7 19 9 26 0 2 0 5-1 9 0 4 0 6 0 8 1 2 2 5 5 8 3 3 4 5 5 7 4 6 8 15 12 26 4 11 6 19 7 26 0 1 0 4-1 9 0 4 0 7 0 8 1 2 3 5 7 8 3 4 5 6 6 7 3 5 8 13 12 24 4 11 7 20 8 28 0 1 0 4-1 7-1 3-1 6-1 7 1 2 2 4 3 6 1 1 3 4 5 6 2 3 4 5 5 6 2 2 3 5 5 9 1 3 3 7 4 10 1 3 3 6 5 10 1 4 3 7 5 9 2 3 5 5 8 7 3 2 6 3 10 3 4 0 8 0 14-1l-1-1c8 2 12 2 15 2l217 0c14 0 25-5 33-16 7-10 9-23 5-37l-78-259c-7-22-14-37-21-43-6-7-19-10-36-10l-249 0c-5 0-8-2-11-5-2-3-2-7 0-12 5-13 18-20 41-20l264 0c6 0 11 2 16 5 5 3 8 6 10 11l86 282c1 5 2 10 1 17 7-3 13-7 17-13z m-304 0c-1-3-1-5 0-7 1-1 3-2 6-2l174 0c2 0 4 1 7 2 2 2 4 4 5 7l6 18c0 3 0 5-1 7-1 1-3 2-6 2l-173 0c-3 0-5-1-8-2-2-2-4-4-4-7z m-24-73c-1-3-1-5 0-7 2-2 3-2 6-2l174 0c2 0 5 0 7 2 3 2 4 4 5 7l6 18c1 2 0 5-1 6-1 2-3 3-5 3l-174 0c-3 0-5-1-7-3-3-1-4-4-5-6z"/>
<glyph glyph-name="suitcase" unicode="&#57344;" d="M183 402l146 0 0 37-146 0z m-101 0l0-365-18 0c-18 0-33 6-45 18-13 13-19 28-19 46l0 237c0 18 6 33 19 45 12 13 27 19 45 19z m320 0l0-365-292 0 0 365 36 0 0 46c0 8 3 14 8 19 6 6 12 8 20 8l164 0c8 0 14-2 20-8 5-5 8-11 8-19l0-46z m110-64l0-237c0-18-6-33-19-46-12-12-27-18-45-18l-18 0 0 365 18 0c18 0 33-6 45-19 13-12 19-27 19-45z"/>
<glyph glyph-name="tags" unicode="&#57345;" d="M110 384c0 10-4 19-11 26-7 7-16 11-26 11-10 0-19-4-26-11-7-7-10-16-10-26 0-10 3-19 10-26 7-7 16-11 26-11 10 0 19 4 26 11 7 7 11 16 11 26z m305-165c0-10-4-18-11-25l-140-141c-8-7-16-10-26-10-10 0-19 3-26 10l-204 205c-8 7-14 16-19 29-5 12-7 23-7 33l0 119c0 10 3 18 11 26 7 7 15 10 25 10l119 0c10 0 21-2 34-7 12-5 21-11 29-19l204-204c7-7 11-16 11-26z m109 0c0-10-3-18-10-25l-141-141c-7-7-16-10-26-10-6 0-12 1-16 4-5 2-10 7-16 12l135 135c7 7 10 15 10 25 0 10-3 19-10 26l-205 204c-7 8-17 14-29 19-12 5-23 7-33 7l64 0c10 0 21-2 33-7 12-5 22-11 29-19l205-204c7-7 10-16 10-26z"/>
<glyph glyph-name="umbrella" unicode="&#57346;" d="M274 275l0-165c0-20-7-37-21-52-15-14-32-21-52-21-20 0-37 7-51 21-15 15-22 32-22 52 0 5 2 9 5 13 4 3 8 5 13 5 5 0 10-2 13-5 4-4 6-8 6-13 0-10 3-18 11-26 7-7 16-11 25-11 10 0 18 4 26 11 7 8 11 16 11 26l0 165c6 3 12 4 18 4 6 0 12-1 18-4z m220-7c0-3-1-5-3-7-2-2-4-2-6-2-3 0-5 1-7 2-9 9-18 16-27 20-8 5-18 7-29 7-13 0-25-4-36-11-12-7-22-16-30-28-1-1-3-4-5-8-2-3-3-5-4-6-2-4-5-5-8-5-3 0-6 1-8 5-1 1-2 3-4 6-2 4-4 7-5 8-8 12-18 21-30 28-11 7-23 11-36 11-13 0-25-4-36-11-12-7-22-16-30-28-1-1-3-4-5-8-2-3-3-5-4-6-2-4-5-5-8-5-3 0-6 1-8 5-1 1-2 3-4 6-2 4-4 7-5 8-8 12-18 21-30 28-11 7-23 11-36 11-11 0-21-2-29-7-9-4-18-11-27-20-2-1-4-2-7-2-2 0-4 0-6 2-2 2-3 4-3 7 0 1 0 1 1 2 8 35 25 65 49 91 24 26 53 45 85 58 32 13 67 20 103 20 27 0 53-4 78-12 26-7 50-18 71-32 21-14 40-32 55-53 16-22 27-46 33-72 1-1 1-1 1-2z m-220 207l0-28c-8 1-14 1-18 1-4 0-10 0-18-1l0 28c0 5 2 10 5 13 4 4 8 6 13 6 5 0 9-2 13-6 3-3 5-8 5-13z"/>
<glyph glyph-name="cube" unicode="&#57347;" d="M256 47l183 99 0 182-183-67z m-18 247l199 72-199 73-200-73z m237 72l0-220c0-6-1-13-5-18-3-6-8-10-14-14l-201-109c-5-3-11-5-17-5-7 0-12 2-18 5l-201 109c-6 4-10 8-14 14-3 5-5 12-5 18l0 220c0 7 2 14 7 21 4 6 10 10 17 13l201 73c4 2 9 2 13 2 4 0 8 0 12-2l201-73c8-3 13-7 18-13 4-7 6-14 6-21z"/>
<glyph glyph-name="pencil-square-o" unicode="&#57348;" d="M254 174l33 33-44 43-33-33 0-16 28 0 0-27z m125 205c-3 3-6 3-9 0l-100-100c-3-3-3-6 0-9 3-3 6-3 9 0l100 100c3 3 3 6 0 9z m23-169l0-55c0-22-8-42-24-58-16-16-35-24-58-24l-238 0c-22 0-42 8-58 24-16 16-24 36-24 58l0 238c0 23 8 42 24 58 16 16 36 24 58 24l238 0c12 0 23-2 33-7 3-1 5-3 6-6 0-4-1-6-3-9l-14-14c-3-2-6-3-9-2-5 1-9 2-13 2l-238 0c-12 0-23-5-32-14-9-9-13-19-13-32l0-238c0-12 4-23 13-32 9-9 20-13 32-13l238 0c13 0 23 4 32 13 9 9 14 20 14 32l0 36c0 3 1 5 2 7l19 18c2 3 6 4 10 2 3-2 5-4 5-8z m-27 211l82-83-192-192-82 0 0 83z m127-38l-27-26-82 82 26 26c6 5 12 8 20 8 7 0 14-3 19-8l44-43c5-6 8-12 8-20 0-7-3-14-8-19z"/>
</font></defs></svg>
